.............
----------------------------------------------------------------------
Ran 13 tests in 0.001s

OK
Name               Stmts   Miss Branch BrPart  Cover   Missing
--------------------------------------------------------------
Diplomacy.py          70      0     28      0   100%
TestDiplomacy.py      89      0      0      0   100%
--------------------------------------------------------------
TOTAL                159      0     28      0   100%
