...........
----------------------------------------------------------------------
Ran 11 tests in 0.002s

OK
Name               Stmts   Miss Branch BrPart  Cover   Missing
--------------------------------------------------------------
Diplomacy.py          88      0     44      0   100%
TestDiplomacy.py      89      0      0      0   100%
--------------------------------------------------------------
TOTAL                177      0     44      0   100%
